<?xml version="1.0" encoding="UTF-8"?>
<svg xmlns="http://www.w3.org/2000/svg" xmlns:xlink="http://www.w3.org/1999/xlink" width="254.971pt" height="210.573pt" viewBox="0 0 254.971 210.573" version="1.1">
<defs>
<g>
<symbol overflow="visible" id="glyph0-0">
<path style="stroke:none;" d=""/>
</symbol>
<symbol overflow="visible" id="glyph0-1">
<path style="stroke:none;" d="M 3.328125 -3.015625 C 3.390625 -3.265625 3.625 -4.1875 4.3125 -4.1875 C 4.359375 -4.1875 4.609375 -4.1875 4.8125 -4.0625 C 4.53125 -4 4.34375 -3.765625 4.34375 -3.515625 C 4.34375 -3.359375 4.453125 -3.171875 4.71875 -3.171875 C 4.9375 -3.171875 5.25 -3.34375 5.25 -3.75 C 5.25 -4.265625 4.671875 -4.40625 4.328125 -4.40625 C 3.75 -4.40625 3.40625 -3.875 3.28125 -3.65625 C 3.03125 -4.3125 2.5 -4.40625 2.203125 -4.40625 C 1.171875 -4.40625 0.59375 -3.125 0.59375 -2.875 C 0.59375 -2.765625 0.703125 -2.765625 0.71875 -2.765625 C 0.796875 -2.765625 0.828125 -2.796875 0.84375 -2.875 C 1.1875 -3.9375 1.84375 -4.1875 2.1875 -4.1875 C 2.375 -4.1875 2.71875 -4.09375 2.71875 -3.515625 C 2.71875 -3.203125 2.546875 -2.546875 2.1875 -1.140625 C 2.03125 -0.53125 1.671875 -0.109375 1.234375 -0.109375 C 1.171875 -0.109375 0.953125 -0.109375 0.734375 -0.234375 C 0.984375 -0.296875 1.203125 -0.5 1.203125 -0.78125 C 1.203125 -1.046875 0.984375 -1.125 0.84375 -1.125 C 0.53125 -1.125 0.296875 -0.875 0.296875 -0.546875 C 0.296875 -0.09375 0.78125 0.109375 1.21875 0.109375 C 1.890625 0.109375 2.25 -0.59375 2.265625 -0.640625 C 2.390625 -0.28125 2.75 0.109375 3.34375 0.109375 C 4.375 0.109375 4.9375 -1.171875 4.9375 -1.421875 C 4.9375 -1.53125 4.859375 -1.53125 4.828125 -1.53125 C 4.734375 -1.53125 4.71875 -1.484375 4.6875 -1.421875 C 4.359375 -0.34375 3.6875 -0.109375 3.375 -0.109375 C 2.984375 -0.109375 2.828125 -0.421875 2.828125 -0.765625 C 2.828125 -0.984375 2.875 -1.203125 2.984375 -1.640625 Z M 3.328125 -3.015625 "/>
</symbol>
<symbol overflow="visible" id="glyph0-2">
<path style="stroke:none;" d="M 4.84375 -3.796875 C 4.890625 -3.9375 4.890625 -3.953125 4.890625 -4.03125 C 4.890625 -4.203125 4.75 -4.296875 4.59375 -4.296875 C 4.5 -4.296875 4.34375 -4.234375 4.25 -4.09375 C 4.234375 -4.03125 4.140625 -3.734375 4.109375 -3.546875 C 4.03125 -3.296875 3.96875 -3.015625 3.90625 -2.75 L 3.453125 -0.953125 C 3.421875 -0.8125 2.984375 -0.109375 2.328125 -0.109375 C 1.828125 -0.109375 1.71875 -0.546875 1.71875 -0.921875 C 1.71875 -1.375 1.890625 -2 2.21875 -2.875 C 2.375 -3.28125 2.421875 -3.390625 2.421875 -3.59375 C 2.421875 -4.03125 2.109375 -4.40625 1.609375 -4.40625 C 0.65625 -4.40625 0.296875 -2.953125 0.296875 -2.875 C 0.296875 -2.765625 0.390625 -2.765625 0.40625 -2.765625 C 0.515625 -2.765625 0.515625 -2.796875 0.5625 -2.953125 C 0.84375 -3.890625 1.234375 -4.1875 1.578125 -4.1875 C 1.65625 -4.1875 1.828125 -4.1875 1.828125 -3.875 C 1.828125 -3.625 1.71875 -3.359375 1.65625 -3.171875 C 1.25 -2.109375 1.078125 -1.546875 1.078125 -1.078125 C 1.078125 -0.1875 1.703125 0.109375 2.296875 0.109375 C 2.6875 0.109375 3.015625 -0.0625 3.296875 -0.34375 C 3.171875 0.171875 3.046875 0.671875 2.65625 1.203125 C 2.390625 1.53125 2.015625 1.828125 1.5625 1.828125 C 1.421875 1.828125 0.96875 1.796875 0.796875 1.40625 C 0.953125 1.40625 1.09375 1.40625 1.21875 1.28125 C 1.328125 1.203125 1.421875 1.0625 1.421875 0.875 C 1.421875 0.5625 1.15625 0.53125 1.0625 0.53125 C 0.828125 0.53125 0.5 0.6875 0.5 1.171875 C 0.5 1.671875 0.9375 2.046875 1.5625 2.046875 C 2.578125 2.046875 3.609375 1.140625 3.890625 0.015625 Z M 4.84375 -3.796875 "/>
</symbol>
<symbol overflow="visible" id="glyph1-0">
<path style="stroke:none;" d=""/>
</symbol>
<symbol overflow="visible" id="glyph1-1">
<path style="stroke:none;" d="M 5.0625 -2.703125 C 4.53125 -3.375 4.40625 -3.53125 4.09375 -3.78125 C 3.53125 -4.234375 2.984375 -4.40625 2.46875 -4.40625 C 1.3125 -4.40625 0.546875 -3.3125 0.546875 -2.140625 C 0.546875 -1 1.28125 0.109375 2.4375 0.109375 C 3.578125 0.109375 4.40625 -0.796875 4.890625 -1.59375 C 5.4375 -0.921875 5.546875 -0.765625 5.859375 -0.515625 C 6.421875 -0.0625 6.984375 0.109375 7.484375 0.109375 C 8.65625 0.109375 9.40625 -0.984375 9.40625 -2.15625 C 9.40625 -3.296875 8.671875 -4.40625 7.53125 -4.40625 C 6.375 -4.40625 5.546875 -3.5 5.0625 -2.703125 Z M 5.328125 -2.359375 C 5.734375 -3.078125 6.46875 -4.09375 7.59375 -4.09375 C 8.65625 -4.09375 9.1875 -3.046875 9.1875 -2.15625 C 9.1875 -1.171875 8.515625 -0.375 7.640625 -0.375 C 7.0625 -0.375 6.625 -0.78125 6.40625 -1 C 6.15625 -1.265625 5.9375 -1.578125 5.328125 -2.359375 Z M 4.640625 -1.9375 C 4.234375 -1.21875 3.484375 -0.203125 2.359375 -0.203125 C 1.3125 -0.203125 0.765625 -1.25 0.765625 -2.140625 C 0.765625 -3.125 1.4375 -3.921875 2.3125 -3.921875 C 2.890625 -3.921875 3.34375 -3.515625 3.546875 -3.296875 C 3.796875 -3.03125 4.03125 -2.71875 4.640625 -1.9375 Z M 4.640625 -1.9375 "/>
</symbol>
<symbol overflow="visible" id="glyph2-0">
<path style="stroke:none;" d=""/>
</symbol>
<symbol overflow="visible" id="glyph2-1">
<path style="stroke:none;" d="M 4.078125 -2.296875 L 6.859375 -2.296875 C 7 -2.296875 7.1875 -2.296875 7.1875 -2.5 C 7.1875 -2.6875 7 -2.6875 6.859375 -2.6875 L 4.078125 -2.6875 L 4.078125 -5.484375 C 4.078125 -5.625 4.078125 -5.8125 3.875 -5.8125 C 3.671875 -5.8125 3.671875 -5.625 3.671875 -5.484375 L 3.671875 -2.6875 L 0.890625 -2.6875 C 0.75 -2.6875 0.5625 -2.6875 0.5625 -2.5 C 0.5625 -2.296875 0.75 -2.296875 0.890625 -2.296875 L 3.671875 -2.296875 L 3.671875 0.5 C 3.671875 0.640625 3.671875 0.828125 3.875 0.828125 C 4.078125 0.828125 4.078125 0.640625 4.078125 0.5 Z M 4.078125 -2.296875 "/>
</symbol>
<symbol overflow="visible" id="glyph2-2">
<path style="stroke:none;" d="M 2.9375 -1.640625 L 2.9375 -0.78125 C 2.9375 -0.421875 2.90625 -0.3125 2.171875 -0.3125 L 1.96875 -0.3125 L 1.96875 0 C 2.375 -0.03125 2.890625 -0.03125 3.3125 -0.03125 C 3.734375 -0.03125 4.25 -0.03125 4.671875 0 L 4.671875 -0.3125 L 4.453125 -0.3125 C 3.71875 -0.3125 3.703125 -0.421875 3.703125 -0.78125 L 3.703125 -1.640625 L 4.6875 -1.640625 L 4.6875 -1.953125 L 3.703125 -1.953125 L 3.703125 -6.484375 C 3.703125 -6.6875 3.703125 -6.75 3.53125 -6.75 C 3.453125 -6.75 3.421875 -6.75 3.34375 -6.625 L 0.28125 -1.953125 L 0.28125 -1.640625 Z M 2.984375 -1.953125 L 0.5625 -1.953125 L 2.984375 -5.671875 Z M 2.984375 -1.953125 "/>
</symbol>
<symbol overflow="visible" id="glyph3-0">
<path style="stroke:none;" d=""/>
</symbol>
<symbol overflow="visible" id="glyph3-1">
<path style="stroke:none;" d="M 5.21875 -3.671875 C 5.3125 -3.765625 5.328125 -3.796875 5.328125 -3.859375 C 5.328125 -3.953125 5.25 -4.046875 5.140625 -4.046875 C 5.078125 -4.046875 5.046875 -4.015625 4.953125 -3.921875 L 3.296875 -2.25 L 1.625 -3.921875 C 1.515625 -4.03125 1.484375 -4.046875 1.421875 -4.046875 C 1.328125 -4.046875 1.25 -3.953125 1.25 -3.859375 C 1.25 -3.78125 1.28125 -3.75 1.359375 -3.671875 L 3.03125 -1.984375 L 1.359375 -0.328125 C 1.265625 -0.21875 1.25 -0.1875 1.25 -0.125 C 1.25 -0.03125 1.328125 0.0625 1.421875 0.0625 C 1.5 0.0625 1.515625 0.03125 1.609375 -0.0625 L 3.28125 -1.734375 L 5.015625 0.015625 C 5.0625 0.03125 5.109375 0.0625 5.140625 0.0625 C 5.25 0.0625 5.328125 -0.03125 5.328125 -0.125 C 5.328125 -0.1875 5.296875 -0.21875 5.296875 -0.234375 C 5.265625 -0.28125 3.984375 -1.546875 3.546875 -1.984375 Z M 5.21875 -3.671875 "/>
</symbol>
<symbol overflow="visible" id="glyph3-2">
<path style="stroke:none;" d="M 4.296875 -2.1875 C 3.828125 -2.75 3.765625 -2.8125 3.484375 -3.015625 C 3.125 -3.296875 2.640625 -3.515625 2.109375 -3.515625 C 1.140625 -3.515625 0.46875 -2.65625 0.46875 -1.71875 C 0.46875 -0.78125 1.125 0.078125 2.078125 0.078125 C 2.734375 0.078125 3.5 -0.265625 4.15625 -1.25 C 4.625 -0.6875 4.6875 -0.625 4.96875 -0.421875 C 5.34375 -0.140625 5.828125 0.078125 6.34375 0.078125 C 7.328125 0.078125 8 -0.765625 8 -1.71875 C 8 -2.65625 7.328125 -3.515625 6.390625 -3.515625 C 5.734375 -3.515625 4.96875 -3.171875 4.296875 -2.1875 Z M 4.546875 -1.890625 C 4.84375 -2.390625 5.5 -3.21875 6.4375 -3.21875 C 7.296875 -3.21875 7.765625 -2.4375 7.765625 -1.71875 C 7.765625 -0.953125 7.1875 -0.34375 6.484375 -0.34375 C 5.78125 -0.34375 5.3125 -0.9375 4.546875 -1.890625 Z M 3.921875 -1.546875 C 3.625 -1.046875 2.96875 -0.21875 2.03125 -0.21875 C 1.171875 -0.21875 0.6875 -1 0.6875 -1.71875 C 0.6875 -2.484375 1.28125 -3.078125 1.984375 -3.078125 C 2.6875 -3.078125 3.15625 -2.5 3.921875 -1.546875 Z M 3.921875 -1.546875 "/>
</symbol>
</g>
<clipPath id="clip1">
  <path d="M 8.011719 11.949219 L 147 11.949219 L 147 149 L 8.011719 149 Z M 8.011719 11.949219 "/>
</clipPath>
<clipPath id="clip2">
  <path d="M 104 110 L 243.289062 110 L 243.289062 204.707031 L 104 204.707031 Z M 104 110 "/>
</clipPath>
</defs>
<g id="surface1">
<path style="fill:none;stroke-width:0.19925;stroke-linecap:butt;stroke-linejoin:miter;stroke:rgb(75%,75%,75%);stroke-opacity:1;stroke-miterlimit:10;" d="M -60.946281 -99.213125 L 174.331063 -99.213125 M -60.946281 -85.04125 L 174.331063 -85.04125 M -60.946281 -70.865469 L 174.331063 -70.865469 M -60.946281 -56.693594 L 174.331063 -56.693594 M -60.946281 -42.521719 L 174.331063 -42.521719 M -60.946281 -28.345938 L 174.331063 -28.345938 M -60.946281 -14.174063 L 174.331063 -14.174063 M -60.946281 0.00171875 L 174.331063 0.00171875 M -60.946281 14.173594 L 174.331063 14.173594 M -60.946281 28.345469 L 174.331063 28.345469 M -60.946281 42.52125 L 174.331063 42.52125 M -60.946281 56.693125 L 174.331063 56.693125 M -60.946281 70.868906 L 174.331063 70.868906 M -60.946281 85.040781 L 174.331063 85.040781 M -56.692375 -103.467031 L -56.692375 89.290781 M -42.5205 -103.467031 L -42.5205 89.290781 M -28.348625 -103.467031 L -28.348625 89.290781 M -14.172844 -103.467031 L -14.172844 89.290781 M -0.00096875 -103.467031 L -0.00096875 89.290781 M 14.174813 -103.467031 L 14.174813 89.290781 M 28.346688 -103.467031 L 28.346688 89.290781 M 42.518563 -103.467031 L 42.518563 89.290781 M 56.694344 -103.467031 L 56.694344 89.290781 M 70.866219 -103.467031 L 70.866219 89.290781 M 85.042 -103.467031 L 85.042 89.290781 M 99.213875 -103.467031 L 99.213875 89.290781 M 113.38575 -103.467031 L 113.38575 89.290781 M 127.561531 -103.467031 L 127.561531 89.290781 M 141.733406 -103.467031 L 141.733406 89.290781 M 155.909188 -103.467031 L 155.909188 89.290781 M 170.081063 -103.467031 L 170.081063 89.290781 " transform="matrix(1,0,0,-1,68.958,101.24)"/>
<path style="fill:none;stroke-width:0.3985;stroke-linecap:butt;stroke-linejoin:miter;stroke:rgb(0%,0%,0%);stroke-opacity:1;stroke-miterlimit:10;" d="M -60.946281 0.00171875 L 173.874031 0.00171875 " transform="matrix(1,0,0,-1,68.958,101.24)"/>
<path style="fill:none;stroke-width:0.3985;stroke-linecap:butt;stroke-linejoin:round;stroke:rgb(0%,0%,0%);stroke-opacity:1;stroke-miterlimit:10;" d="M 5.101481 0.00171875 L 0.64445 1.6775 L 2.105387 0.00171875 L 0.64445 -1.677969 Z M 5.101481 0.00171875 " transform="matrix(1,0,0,-1,240.8243,101.24)"/>
<g style="fill:rgb(0%,0%,0%);fill-opacity:1;">
  <use xlink:href="#glyph0-1" x="240.287" y="109.049"/>
</g>
<path style="fill:none;stroke-width:0.3985;stroke-linecap:butt;stroke-linejoin:miter;stroke:rgb(0%,0%,0%);stroke-opacity:1;stroke-miterlimit:10;" d="M -0.00096875 -103.467031 L -0.00096875 88.83375 " transform="matrix(1,0,0,-1,68.958,101.24)"/>
<path style="fill:none;stroke-width:0.3985;stroke-linecap:butt;stroke-linejoin:round;stroke:rgb(0%,0%,0%);stroke-opacity:1;stroke-miterlimit:10;" d="M 5.10157 0.00096875 L 0.644539 1.67675 L 2.105476 0.00096875 L 0.644539 -1.678719 Z M 5.10157 0.00096875 " transform="matrix(0,-1,-1,0,68.958,14.41407)"/>
<g style="fill:rgb(0%,0%,0%);fill-opacity:1;">
  <use xlink:href="#glyph0-2" x="60.196" y="13.279"/>
</g>
<g clip-path="url(#clip1)" clip-rule="nonzero">
<path style="fill:none;stroke-width:1.59404;stroke-linecap:butt;stroke-linejoin:miter;stroke:rgb(69.999695%,34.999084%,0%);stroke-opacity:1;stroke-miterlimit:10;" d="M -60.946281 -24.931875 C -60.946281 -24.931875 -60.524406 -24.920156 -60.360344 -24.91625 C -60.200187 -24.908438 -59.938469 -24.900625 -59.778312 -24.896719 C -59.61425 -24.892813 -59.356437 -24.885 -59.192375 -24.881094 C -59.032219 -24.873281 -58.7705 -24.865469 -58.610344 -24.861563 C -58.446281 -24.857656 -58.188469 -24.849844 -58.024406 -24.845938 C -57.86425 -24.838125 -57.602531 -24.830313 -57.442375 -24.826406 C -57.278312 -24.8225 -57.0205 -24.814688 -56.856437 -24.806875 C -56.696281 -24.802969 -56.434562 -24.795156 -56.274406 -24.79125 C -56.110344 -24.783438 -55.852531 -24.775625 -55.688469 -24.771719 C -55.528312 -24.767813 -55.266594 -24.76 -55.106437 -24.752188 C -54.942375 -24.748281 -54.684562 -24.740469 -54.5205 -24.732656 C -54.360344 -24.72875 -54.098625 -24.720938 -53.938469 -24.717031 C -53.774406 -24.709219 -53.516594 -24.701406 -53.352531 -24.6975 C -53.192375 -24.689688 -52.930656 -24.681875 -52.7705 -24.677969 C -52.606437 -24.670156 -52.348625 -24.662344 -52.184562 -24.658438 C -52.024406 -24.650625 -51.762687 -24.642813 -51.602531 -24.635 C -51.438469 -24.631094 -51.180656 -24.623281 -51.016594 -24.615469 C -50.856437 -24.611563 -50.594719 -24.60375 -50.434562 -24.595938 C -50.2705 -24.592031 -50.012687 -24.580313 -49.848625 -24.576406 C -49.688469 -24.568594 -49.42675 -24.560781 -49.266594 -24.556875 C -49.102531 -24.549063 -48.844719 -24.54125 -48.680656 -24.533438 C -48.5205 -24.529531 -48.258781 -24.517813 -48.098625 -24.513906 C -47.934562 -24.506094 -47.67675 -24.498281 -47.512687 -24.490469 C -47.352531 -24.486563 -47.090812 -24.474844 -46.930656 -24.470938 C -46.766594 -24.463125 -46.508781 -24.455313 -46.344719 -24.4475 C -46.184562 -24.439688 -45.922844 -24.431875 -45.762687 -24.424063 C -45.598625 -24.420156 -45.340812 -24.408438 -45.17675 -24.404531 C -45.016594 -24.396719 -44.754875 -24.385 -44.590812 -24.381094 C -44.430656 -24.373281 -44.168937 -24.361563 -44.008781 -24.357656 C -43.848625 -24.349844 -43.586906 -24.342031 -43.42675 -24.334219 C -43.262687 -24.326406 -43.000969 -24.318594 -42.840812 -24.310781 C -42.67675 -24.302969 -42.418937 -24.29125 -42.254875 -24.287344 C -42.094719 -24.279531 -41.833 -24.267813 -41.672844 -24.263906 C -41.508781 -24.256094 -41.250969 -24.244375 -41.086906 -24.236563 C -40.92675 -24.232656 -40.665031 -24.220938 -40.504875 -24.213125 C -40.340812 -24.205313 -40.083 -24.193594 -39.918937 -24.189688 C -39.758781 -24.181875 -39.497062 -24.170156 -39.336906 -24.162344 C -39.172844 -24.154531 -38.915031 -24.142813 -38.750969 -24.138906 C -38.590812 -24.131094 -38.329094 -24.119375 -38.168937 -24.111563 C -38.004875 -24.10375 -37.747062 -24.092031 -37.583 -24.084219 C -37.422844 -24.076406 -37.161125 -24.064688 -37.000969 -24.056875 C -36.836906 -24.052969 -36.579094 -24.037344 -36.415031 -24.033438 C -36.254875 -24.025625 -35.993156 -24.013906 -35.833 -24.006094 C -35.668937 -23.998281 -35.411125 -23.986563 -35.247062 -23.97875 C -35.086906 -23.970938 -34.825187 -23.955313 -34.665031 -23.9475 C -34.500969 -23.939688 -34.243156 -23.927969 -34.079094 -23.920156 C -33.918937 -23.912344 -33.657219 -23.900625 -33.497062 -23.892813 C -33.333 -23.885 -33.075187 -23.869375 -32.911125 -23.861563 C -32.750969 -23.85375 -32.48925 -23.842031 -32.329094 -23.834219 C -32.165031 -23.826406 -31.907219 -23.810781 -31.743156 -23.802969 C -31.583 -23.795156 -31.321281 -23.783438 -31.161125 -23.771719 C -30.997062 -23.763906 -30.73925 -23.752188 -30.575187 -23.744375 C -30.415031 -23.732656 -30.153312 -23.720938 -29.993156 -23.713125 C -29.829094 -23.701406 -29.571281 -23.689688 -29.407219 -23.681875 C -29.247062 -23.670156 -28.985344 -23.658438 -28.825187 -23.650625 C -28.661125 -23.638906 -28.403312 -23.627188 -28.23925 -23.615469 C -28.079094 -23.607656 -27.817375 -23.592031 -27.657219 -23.584219 C -27.493156 -23.576406 -27.235344 -23.560781 -27.071281 -23.549063 C -26.911125 -23.54125 -26.649406 -23.525625 -26.48925 -23.517813 C -26.325187 -23.506094 -26.067375 -23.490469 -25.903312 -23.482656 C -25.743156 -23.474844 -25.481437 -23.459219 -25.321281 -23.4475 C -25.157219 -23.439688 -24.899406 -23.424063 -24.735344 -23.412344 C -24.575187 -23.404531 -24.313469 -23.388906 -24.153312 -23.377188 C -23.98925 -23.365469 -23.731437 -23.349844 -23.567375 -23.342031 C -23.407219 -23.330313 -23.1455 -23.314688 -22.985344 -23.302969 C -22.821281 -23.295156 -22.563469 -23.275625 -22.399406 -23.267813 C -22.23925 -23.256094 -21.977531 -23.240469 -21.817375 -23.22875 C -21.653312 -23.217031 -21.3955 -23.201406 -21.231437 -23.189688 C -21.071281 -23.181875 -20.809562 -23.162344 -20.649406 -23.150625 C -20.485344 -23.142813 -20.223625 -23.123281 -20.063469 -23.111563 C -19.903312 -23.099844 -19.641594 -23.084219 -19.481437 -23.0725 C -19.317375 -23.060781 -19.059562 -23.04125 -18.8955 -23.033438 C -18.735344 -23.021719 -18.473625 -23.002188 -18.309562 -22.990469 C -18.149406 -22.97875 -17.887687 -22.959219 -17.727531 -22.9475 C -17.563469 -22.935781 -17.305656 -22.91625 -17.141594 -22.904531 C -16.981437 -22.892813 -16.719719 -22.873281 -16.559562 -22.861563 C -16.3955 -22.849844 -16.137687 -22.830313 -15.973625 -22.818594 C -15.813469 -22.806875 -15.55175 -22.787344 -15.391594 -22.771719 C -15.227531 -22.76 -14.969719 -22.740469 -14.805656 -22.72875 C -14.6455 -22.713125 -14.383781 -22.693594 -14.223625 -22.681875 C -14.059562 -22.670156 -13.80175 -22.646719 -13.637687 -22.635 C -13.477531 -22.619375 -13.215812 -22.599844 -13.055656 -22.588125 C -12.891594 -22.5725 -12.633781 -22.552969 -12.469719 -22.537344 C -12.309562 -22.525625 -12.047844 -22.502188 -11.887687 -22.486563 C -11.723625 -22.474844 -11.465812 -22.451406 -11.30175 -22.439688 C -11.141594 -22.424063 -10.879875 -22.400625 -10.719719 -22.385 C -10.555656 -22.373281 -10.297844 -22.349844 -10.133781 -22.334219 C -9.973625 -22.318594 -9.711906 -22.295156 -9.55175 -22.283438 C -9.387687 -22.267813 -9.129875 -22.244375 -8.965812 -22.22875 C -8.805656 -22.213125 -8.543937 -22.189688 -8.383781 -22.174063 C -8.219719 -22.158438 -7.961906 -22.131094 -7.797844 -22.115469 C -7.637687 -22.099844 -7.375969 -22.076406 -7.215812 -22.060781 C -7.05175 -22.045156 -6.793937 -22.017813 -6.629875 -22.002188 C -6.469719 -21.986563 -6.208 -21.959219 -6.047844 -21.943594 C -5.883781 -21.927969 -5.625969 -21.900625 -5.461906 -21.881094 C -5.30175 -21.865469 -5.040031 -21.838125 -4.879875 -21.8225 C -4.715812 -21.802969 -4.458 -21.775625 -4.293937 -21.76 C -4.133781 -21.740469 -3.872062 -21.713125 -3.711906 -21.693594 C -3.547844 -21.677969 -3.290031 -21.646719 -3.125969 -21.631094 C -2.965812 -21.611563 -2.704094 -21.584219 -2.543937 -21.564688 C -2.379875 -21.545156 -2.122062 -21.513906 -1.958 -21.498281 C -1.797844 -21.47875 -1.536125 -21.4475 -1.375969 -21.427969 C -1.211906 -21.408438 -0.954094 -21.377188 -0.790031 -21.357656 C -0.629875 -21.338125 -0.368156 -21.306875 -0.208 -21.287344 C -0.0439375 -21.263906 0.213875 -21.232656 0.377938 -21.213125 C 0.538094 -21.193594 0.799813 -21.158438 0.959969 -21.138906 C 1.124031 -21.115469 1.381844 -21.084219 1.545906 -21.060781 C 1.706063 -21.04125 1.967781 -21.006094 2.127938 -20.982656 C 2.292 -20.963125 2.549813 -20.924063 2.713875 -20.904531 C 2.874031 -20.881094 3.13575 -20.845938 3.295906 -20.8225 C 3.459969 -20.799063 3.717781 -20.763906 3.881844 -20.740469 C 4.042 -20.717031 4.303719 -20.677969 4.463875 -20.654531 C 4.627938 -20.631094 4.88575 -20.592031 5.049813 -20.568594 C 5.209969 -20.54125 5.471688 -20.502188 5.631844 -20.47875 C 5.795906 -20.451406 6.053719 -20.412344 6.217781 -20.388906 C 6.377938 -20.361563 6.639656 -20.318594 6.803719 -20.295156 C 6.963875 -20.267813 7.225594 -20.224844 7.38575 -20.1975 C 7.545906 -20.170156 7.807625 -20.127188 7.971688 -20.099844 C 8.131844 -20.0725 8.393563 -20.029531 8.553719 -20.002188 C 8.717781 -19.970938 8.975594 -19.927969 9.139656 -19.896719 C 9.299813 -19.869375 9.561531 -19.8225 9.721688 -19.795156 C 9.88575 -19.763906 10.143563 -19.717031 10.307625 -19.685781 C 10.467781 -19.654531 10.7295 -19.607656 10.889656 -19.576406 C 11.053719 -19.545156 11.311531 -19.494375 11.475594 -19.463125 C 11.63575 -19.431875 11.897469 -19.377188 12.057625 -19.345938 C 12.221688 -19.314688 12.4795 -19.26 12.643563 -19.224844 C 12.803719 -19.193594 13.065438 -19.138906 13.225594 -19.10375 C 13.389656 -19.068594 13.647469 -19.013906 13.811531 -18.97875 C 13.971688 -18.943594 14.233406 -18.885 14.393563 -18.849844 C 14.557625 -18.810781 14.815438 -18.752188 14.9795 -18.717031 C 15.139656 -18.677969 15.401375 -18.615469 15.561531 -18.580313 C 15.725594 -18.54125 15.983406 -18.47875 16.147469 -18.439688 C 16.307625 -18.396719 16.569344 -18.334219 16.7295 -18.295156 C 16.893563 -18.252188 17.151375 -18.185781 17.315438 -18.142813 C 17.475594 -18.10375 17.737313 -18.033438 17.897469 -17.990469 C 18.061531 -17.9475 18.319344 -17.877188 18.483406 -17.830313 C 18.643563 -17.787344 18.905281 -17.717031 19.065438 -17.670156 C 19.2295 -17.623281 19.487313 -17.549063 19.651375 -17.502188 C 19.811531 -17.451406 20.07325 -17.377188 20.233406 -17.326406 C 20.397469 -17.279531 20.655281 -17.1975 20.819344 -17.146719 C 20.9795 -17.095938 21.241219 -17.013906 21.401375 -16.963125 C 21.565438 -16.908438 21.82325 -16.826406 21.987313 -16.771719 C 22.147469 -16.717031 22.409188 -16.627188 22.569344 -16.5725 C 22.733406 -16.517813 22.991219 -16.424063 23.155281 -16.369375 C 23.315438 -16.310781 23.577156 -16.217031 23.737313 -16.154531 C 23.901375 -16.095938 24.159188 -15.998281 24.32325 -15.935781 C 24.483406 -15.873281 24.745125 -15.771719 24.905281 -15.705313 C 25.069344 -15.642813 25.327156 -15.537344 25.491219 -15.470938 C 25.651375 -15.404531 25.913094 -15.295156 26.07325 -15.224844 C 26.237313 -15.154531 26.495125 -15.04125 26.659188 -14.970938 C 26.819344 -14.896719 27.081063 -14.779531 27.241219 -14.705313 C 27.405281 -14.631094 27.663094 -14.506094 27.827156 -14.427969 C 27.987313 -14.349844 28.249031 -14.220938 28.409188 -14.142813 C 28.57325 -14.060781 28.831063 -13.927969 28.995125 -13.842031 C 29.155281 -13.756094 29.417 -13.619375 29.577156 -13.529531 C 29.741219 -13.439688 29.999031 -13.295156 30.163094 -13.201406 C 30.32325 -13.111563 30.584969 -12.959219 30.749031 -12.861563 C 30.909188 -12.763906 31.170906 -12.607656 31.331063 -12.506094 C 31.491219 -12.404531 31.752938 -12.236563 31.913094 -12.131094 C 32.077156 -12.025625 32.334969 -11.85375 32.499031 -11.740469 C 32.659188 -11.631094 32.920906 -11.4475 33.084969 -11.330313 C 33.245125 -11.213125 33.506844 -11.021719 33.667 -10.896719 C 33.831063 -10.775625 34.088875 -10.5725 34.252938 -10.443594 C 34.413094 -10.314688 34.674813 -10.10375 34.834969 -9.967031 C 34.999031 -9.830313 35.256844 -9.60375 35.420906 -9.463125 C 35.581063 -9.318594 35.842781 -9.080313 36.002938 -8.927969 C 36.167 -8.775625 36.424813 -8.525625 36.588875 -8.365469 C 36.749031 -8.201406 37.01075 -7.935781 37.170906 -7.767813 C 37.334969 -7.595938 37.592781 -7.314688 37.756844 -7.131094 C 37.917 -6.951406 38.178719 -6.650625 38.338875 -6.455313 C 38.502938 -6.263906 38.76075 -5.943594 38.924813 -5.736563 C 39.084969 -5.529531 39.346688 -5.189688 39.506844 -4.970938 C 39.670906 -4.748281 39.928719 -4.385 40.092781 -4.146719 C 40.252938 -3.912344 40.514656 -3.517813 40.674813 -3.263906 C 40.838875 -3.01 41.096688 -2.588125 41.26075 -2.314688 C 41.420906 -2.04125 41.682625 -1.588125 41.842781 -1.29125 C 42.006844 -0.994375 42.264656 -0.506094 42.428719 -0.185781 C 42.588875 0.134531 42.850594 0.669687 43.01075 1.017344 C 43.174813 1.365 43.432625 1.947031 43.596688 2.325937 C 43.756844 2.70875 44.018563 3.341562 44.178719 3.759531 C 44.342781 4.1775 44.600594 4.872812 44.764656 5.329844 C 44.924813 5.790781 45.186531 6.556406 45.346688 7.064219 C 45.51075 7.572031 45.768563 8.423594 45.932625 8.986094 C 46.092781 9.548594 46.3545 10.497812 46.514656 11.126719 C 46.678719 11.759531 46.936531 12.822031 47.100594 13.532969 C 47.26075 14.24 47.522469 15.439219 47.682625 16.247812 C 47.846688 17.0525 48.1045 18.415781 48.268563 19.337656 C 48.428719 20.259531 48.690438 21.822031 48.850594 22.888437 C 49.014656 23.954844 49.272469 25.767344 49.436531 27.013437 C 49.596688 28.255625 49.858406 30.384531 50.018563 31.857187 C 50.182625 33.329844 50.440438 35.857187 50.6045 37.630625 C 50.764656 39.400156 51.026375 42.454844 51.186531 44.630625 C 51.350594 46.8025 51.608406 50.560312 51.772469 53.286875 C 51.932625 56.013437 52.194344 60.755625 52.3545 64.279062 C 52.518563 67.806406 52.776375 73.95875 52.940438 78.693125 C 53.100594 83.431406 53.362313 91.70875 53.522469 98.415781 C 53.686531 105.126719 53.944344 116.786875 54.108406 127.0525 C 54.268563 137.318125 54.530281 154.630625 54.690438 172.400156 C 54.8545 190.169687 55.276375 255.122812 55.276375 255.122812 " transform="matrix(1,0,0,-1,68.958,101.24)"/>
</g>
<g clip-path="url(#clip2)" clip-rule="nonzero">
<path style="fill:none;stroke-width:1.59404;stroke-linecap:butt;stroke-linejoin:miter;stroke:rgb(69.999695%,34.999084%,0%);stroke-opacity:1;stroke-miterlimit:10;" d="M 58.112313 -311.814687 C 58.112313 -311.814687 58.534188 -246.865469 58.694344 -229.095938 C 58.858406 -211.326406 59.116219 -194.01 59.280281 -183.748281 C 59.440438 -173.482656 59.702156 -161.8225 59.862313 -155.111563 C 60.026375 -148.400625 60.284188 -140.123281 60.44825 -135.385 C 60.608406 -130.650625 60.870125 -124.498281 61.030281 -120.974844 C 61.194344 -117.4475 61.452156 -112.709219 61.616219 -109.982656 C 61.776375 -107.256094 62.038094 -103.494375 62.19825 -101.3225 C 62.362313 -99.150625 62.620125 -96.095938 62.784188 -94.3225 C 62.944344 -92.552969 63.206063 -90.021719 63.366219 -88.549063 C 63.530281 -87.076406 63.788094 -84.9475 63.952156 -83.705313 C 64.112313 -82.459219 64.374031 -80.646719 64.534188 -79.580313 C 64.69825 -78.517813 64.956063 -76.951406 65.120125 -76.029531 C 65.280281 -75.107656 65.542 -73.744375 65.702156 -72.939688 C 65.866219 -72.135 66.124031 -70.935781 66.288094 -70.224844 C 66.44825 -69.513906 66.709969 -68.451406 66.870125 -67.8225 C 67.034188 -67.189688 67.292 -66.244375 67.456063 -65.677969 C 67.616219 -65.115469 67.877938 -64.263906 68.038094 -63.756094 C 68.202156 -63.252188 68.459969 -62.482656 68.624031 -62.025625 C 68.784188 -61.564688 69.045906 -60.869375 69.206063 -60.451406 C 69.370125 -60.037344 69.627938 -59.400625 69.792 -59.021719 C 69.952156 -58.638906 70.213875 -58.060781 70.374031 -57.713125 C 70.538094 -57.361563 70.795906 -56.830313 70.959969 -56.51 C 71.120125 -56.189688 71.381844 -55.6975 71.542 -55.400625 C 71.706063 -55.107656 71.963875 -54.650625 72.127938 -54.377188 C 72.288094 -54.10375 72.549813 -53.681875 72.709969 -53.427969 C 72.874031 -53.174063 73.131844 -52.783438 73.295906 -52.545156 C 73.456063 -52.310781 73.717781 -51.943594 73.877938 -51.724844 C 74.042 -51.502188 74.299813 -51.162344 74.463875 -50.955313 C 74.624031 -50.748281 74.88575 -50.431875 75.045906 -50.236563 C 75.209969 -50.04125 75.467781 -49.744375 75.631844 -49.560781 C 75.792 -49.381094 76.053719 -49.099844 76.217781 -48.927969 C 76.377938 -48.756094 76.639656 -48.490469 76.799813 -48.330313 C 76.959969 -48.16625 77.221688 -47.91625 77.38575 -47.763906 C 77.545906 -47.611563 77.807625 -47.377188 77.967781 -47.232656 C 78.131844 -47.088125 78.389656 -46.865469 78.553719 -46.72875 C 78.713875 -46.592031 78.975594 -46.377188 79.13575 -46.248281 C 79.299813 -46.119375 79.557625 -45.91625 79.721688 -45.795156 C 79.881844 -45.670156 80.143563 -45.47875 80.303719 -45.361563 C 80.467781 -45.248281 80.725594 -45.064688 80.889656 -44.951406 C 81.049813 -44.842031 81.311531 -44.66625 81.471688 -44.560781 C 81.63575 -44.455313 81.893563 -44.287344 82.057625 -44.189688 C 82.217781 -44.088125 82.4795 -43.927969 82.639656 -43.830313 C 82.803719 -43.736563 83.061531 -43.584219 83.225594 -43.490469 C 83.38575 -43.396719 83.647469 -43.252188 83.807625 -43.162344 C 83.971688 -43.076406 84.2295 -42.935781 84.393563 -42.85375 C 84.553719 -42.767813 84.815438 -42.635 84.975594 -42.552969 C 85.139656 -42.470938 85.397469 -42.342031 85.561531 -42.263906 C 85.721688 -42.185781 85.983406 -42.064688 86.143563 -41.990469 C 86.307625 -41.912344 86.565438 -41.795156 86.7295 -41.724844 C 86.889656 -41.650625 87.151375 -41.537344 87.311531 -41.467031 C 87.475594 -41.400625 87.733406 -41.29125 87.897469 -41.220938 C 88.057625 -41.154531 88.319344 -41.049063 88.4795 -40.986563 C 88.643563 -40.920156 88.901375 -40.818594 89.065438 -40.76 C 89.225594 -40.6975 89.487313 -40.599844 89.647469 -40.537344 C 89.811531 -40.47875 90.069344 -40.385 90.233406 -40.326406 C 90.393563 -40.267813 90.655281 -40.177969 90.815438 -40.119375 C 90.9795 -40.064688 91.237313 -39.97875 91.401375 -39.924063 C 91.561531 -39.869375 91.82325 -39.783438 91.983406 -39.732656 C 92.147469 -39.677969 92.405281 -39.595938 92.569344 -39.545156 C 92.7295 -39.494375 92.991219 -39.41625 93.151375 -39.365469 C 93.315438 -39.318594 93.57325 -39.240469 93.737313 -39.193594 C 93.897469 -39.146719 94.159188 -39.068594 94.319344 -39.025625 C 94.483406 -38.97875 94.741219 -38.904531 94.905281 -38.861563 C 95.065438 -38.818594 95.327156 -38.744375 95.487313 -38.701406 C 95.651375 -38.658438 95.909188 -38.592031 96.07325 -38.549063 C 96.233406 -38.506094 96.495125 -38.439688 96.655281 -38.400625 C 96.819344 -38.357656 97.077156 -38.295156 97.241219 -38.256094 C 97.401375 -38.217031 97.663094 -38.154531 97.82325 -38.115469 C 97.987313 -38.076406 98.245125 -38.013906 98.409188 -37.97875 C 98.569344 -37.939688 98.831063 -37.881094 98.991219 -37.845938 C 99.155281 -37.806875 99.417 -37.752188 99.577156 -37.717031 C 99.737313 -37.681875 99.999031 -37.623281 100.159188 -37.588125 C 100.32325 -37.556875 100.584969 -37.502188 100.745125 -37.467031 C 100.905281 -37.431875 101.167 -37.381094 101.327156 -37.349844 C 101.491219 -37.314688 101.749031 -37.263906 101.913094 -37.232656 C 102.07325 -37.201406 102.334969 -37.150625 102.499031 -37.119375 C 102.659188 -37.088125 102.920906 -37.037344 103.081063 -37.006094 C 103.241219 -36.97875 103.502938 -36.927969 103.667 -36.900625 C 103.827156 -36.869375 104.088875 -36.8225 104.249031 -36.795156 C 104.413094 -36.767813 104.670906 -36.720938 104.834969 -36.693594 C 104.995125 -36.66625 105.256844 -36.619375 105.417 -36.592031 C 105.581063 -36.564688 105.838875 -36.521719 106.002938 -36.494375 C 106.163094 -36.467031 106.424813 -36.424063 106.584969 -36.400625 C 106.749031 -36.373281 107.006844 -36.330313 107.170906 -36.306875 C 107.331063 -36.279531 107.592781 -36.240469 107.752938 -36.217031 C 107.917 -36.189688 108.174813 -36.150625 108.338875 -36.127188 C 108.499031 -36.10375 108.76075 -36.064688 108.920906 -36.04125 C 109.084969 -36.013906 109.342781 -35.97875 109.506844 -35.955313 C 109.667 -35.931875 109.928719 -35.892813 110.088875 -35.869375 C 110.252938 -35.849844 110.51075 -35.810781 110.674813 -35.79125 C 110.834969 -35.767813 111.096688 -35.732656 111.256844 -35.709219 C 111.420906 -35.689688 111.678719 -35.654531 111.842781 -35.631094 C 112.002938 -35.611563 112.264656 -35.576406 112.424813 -35.556875 C 112.588875 -35.533438 112.846688 -35.502188 113.01075 -35.482656 C 113.170906 -35.459219 113.432625 -35.427969 113.592781 -35.408438 C 113.756844 -35.388906 114.014656 -35.35375 114.178719 -35.334219 C 114.338875 -35.314688 114.600594 -35.283438 114.76075 -35.263906 C 114.924813 -35.248281 115.182625 -35.217031 115.346688 -35.1975 C 115.506844 -35.177969 115.768563 -35.146719 115.928719 -35.131094 C 116.092781 -35.111563 116.350594 -35.080313 116.514656 -35.064688 C 116.674813 -35.045156 116.936531 -35.017813 117.096688 -34.998281 C 117.26075 -34.97875 117.518563 -34.951406 117.682625 -34.935781 C 117.842781 -34.91625 118.1045 -34.888906 118.264656 -34.873281 C 118.428719 -34.85375 118.686531 -34.826406 118.850594 -34.810781 C 119.01075 -34.795156 119.272469 -34.767813 119.432625 -34.752188 C 119.596688 -34.732656 119.8545 -34.709219 120.018563 -34.689688 C 120.178719 -34.674063 120.440438 -34.650625 120.600594 -34.635 C 120.764656 -34.615469 121.022469 -34.592031 121.186531 -34.576406 C 121.346688 -34.560781 121.608406 -34.537344 121.768563 -34.521719 C 121.932625 -34.506094 122.190438 -34.482656 122.3545 -34.467031 C 122.514656 -34.451406 122.776375 -34.427969 122.936531 -34.412344 C 123.100594 -34.396719 123.358406 -34.373281 123.522469 -34.357656 C 123.682625 -34.345938 123.944344 -34.3225 124.1045 -34.306875 C 124.268563 -34.29125 124.526375 -34.267813 124.690438 -34.256094 C 124.850594 -34.240469 125.112313 -34.217031 125.272469 -34.205313 C 125.436531 -34.189688 125.694344 -34.170156 125.858406 -34.154531 C 126.018563 -34.142813 126.280281 -34.119375 126.444344 -34.107656 C 126.6045 -34.092031 126.866219 -34.0725 127.026375 -34.060781 C 127.186531 -34.045156 127.44825 -34.025625 127.612313 -34.013906 C 127.772469 -33.998281 128.034188 -33.97875 128.194344 -33.967031 C 128.358406 -33.951406 128.616219 -33.931875 128.780281 -33.920156 C 128.940438 -33.908438 129.202156 -33.888906 129.362313 -33.877188 C 129.526375 -33.861563 129.784188 -33.842031 129.94825 -33.830313 C 130.108406 -33.818594 130.370125 -33.799063 130.530281 -33.787344 C 130.694344 -33.775625 130.952156 -33.756094 131.116219 -33.744375 C 131.276375 -33.732656 131.538094 -33.713125 131.69825 -33.701406 C 131.862313 -33.693594 132.120125 -33.674063 132.284188 -33.662344 C 132.444344 -33.650625 132.706063 -33.631094 132.866219 -33.623281 C 133.030281 -33.611563 133.288094 -33.592031 133.452156 -33.580313 C 133.612313 -33.568594 133.874031 -33.552969 134.034188 -33.54125 C 134.19825 -33.529531 134.456063 -33.513906 134.620125 -33.502188 C 134.780281 -33.490469 135.042 -33.474844 135.202156 -33.463125 C 135.366219 -33.455313 135.624031 -33.435781 135.788094 -33.427969 C 135.94825 -33.41625 136.209969 -33.400625 136.370125 -33.388906 C 136.534188 -33.377188 136.792 -33.361563 136.956063 -33.35375 C 137.116219 -33.342031 137.377938 -33.326406 137.538094 -33.314688 C 137.702156 -33.306875 137.959969 -33.29125 138.124031 -33.279531 C 138.284188 -33.271719 138.545906 -33.256094 138.706063 -33.244375 C 138.870125 -33.236563 139.127938 -33.220938 139.292 -33.209219 C 139.452156 -33.201406 139.713875 -33.185781 139.874031 -33.177969 C 140.038094 -33.16625 140.295906 -33.150625 140.459969 -33.142813 C 140.620125 -33.135 140.881844 -33.119375 141.042 -33.111563 C 141.206063 -33.099844 141.463875 -33.088125 141.627938 -33.076406 C 141.788094 -33.068594 142.049813 -33.052969 142.209969 -33.045156 C 142.374031 -33.037344 142.631844 -33.021719 142.795906 -33.013906 C 142.956063 -33.006094 143.217781 -32.990469 143.377938 -32.982656 C 143.542 -32.974844 143.799813 -32.959219 143.963875 -32.951406 C 144.124031 -32.943594 144.38575 -32.927969 144.545906 -32.920156 C 144.709969 -32.912344 144.967781 -32.896719 145.131844 -32.888906 C 145.292 -32.881094 145.553719 -32.869375 145.713875 -32.861563 C 145.877938 -32.85375 146.13575 -32.838125 146.299813 -32.830313 C 146.459969 -32.8225 146.721688 -32.810781 146.881844 -32.802969 C 147.045906 -32.795156 147.303719 -32.779531 147.467781 -32.771719 C 147.627938 -32.763906 147.889656 -32.752188 148.049813 -32.744375 C 148.213875 -32.736563 148.471688 -32.724844 148.63575 -32.717031 C 148.795906 -32.709219 149.057625 -32.6975 149.217781 -32.689688 C 149.381844 -32.681875 149.639656 -32.670156 149.803719 -32.662344 C 149.963875 -32.654531 150.225594 -32.642813 150.38575 -32.635 C 150.549813 -32.627188 150.811531 -32.615469 150.971688 -32.607656 C 151.131844 -32.599844 151.393563 -32.588125 151.553719 -32.580313 C 151.717781 -32.576406 151.9795 -32.564688 152.139656 -32.556875 C 152.303719 -32.549063 152.561531 -32.537344 152.725594 -32.529531 C 152.88575 -32.521719 153.147469 -32.513906 153.307625 -32.506094 C 153.467781 -32.498281 153.7295 -32.486563 153.893563 -32.47875 C 154.053719 -32.474844 154.315438 -32.463125 154.475594 -32.455313 C 154.639656 -32.4475 154.897469 -32.439688 155.061531 -32.431875 C 155.221688 -32.424063 155.483406 -32.412344 155.643563 -32.408438 C 155.807625 -32.400625 156.065438 -32.388906 156.2295 -32.385 C 156.389656 -32.377188 156.651375 -32.365469 156.811531 -32.361563 C 156.975594 -32.35375 157.233406 -32.342031 157.397469 -32.338125 C 157.557625 -32.330313 157.819344 -32.318594 157.9795 -32.314688 C 158.143563 -32.306875 158.401375 -32.295156 158.565438 -32.29125 C 158.725594 -32.283438 158.987313 -32.275625 159.147469 -32.267813 C 159.311531 -32.263906 159.569344 -32.252188 159.733406 -32.244375 C 159.893563 -32.240469 160.155281 -32.22875 160.315438 -32.224844 C 160.4795 -32.217031 160.737313 -32.209219 160.901375 -32.201406 C 161.061531 -32.1975 161.32325 -32.185781 161.483406 -32.181875 C 161.647469 -32.174063 161.905281 -32.16625 162.069344 -32.158438 C 162.2295 -32.154531 162.491219 -32.142813 162.651375 -32.138906 C 162.815438 -32.131094 163.07325 -32.123281 163.237313 -32.119375 C 163.397469 -32.111563 163.659188 -32.10375 163.819344 -32.095938 C 163.983406 -32.092031 164.241219 -32.084219 164.405281 -32.076406 C 164.565438 -32.0725 164.827156 -32.060781 164.987313 -32.056875 C 165.151375 -32.052969 165.409188 -32.04125 165.57325 -32.037344 C 165.733406 -32.029531 165.995125 -32.021719 166.155281 -32.017813 C 166.319344 -32.01 166.577156 -32.002188 166.741219 -31.998281 C 166.901375 -31.990469 167.163094 -31.982656 167.32325 -31.97875 C 167.487313 -31.974844 167.745125 -31.963125 167.909188 -31.959219 C 168.069344 -31.955313 168.331063 -31.9475 168.491219 -31.939688 C 168.655281 -31.935781 168.913094 -31.927969 169.077156 -31.920156 C 169.237313 -31.91625 169.499031 -31.908438 169.659188 -31.904531 C 169.82325 -31.896719 170.081063 -31.888906 170.245125 -31.885 C 170.405281 -31.881094 170.667 -31.873281 170.827156 -31.865469 C 170.991219 -31.861563 171.249031 -31.85375 171.413094 -31.849844 C 171.57325 -31.845938 171.834969 -31.838125 171.995125 -31.830313 C 172.159188 -31.826406 172.417 -31.818594 172.581063 -31.814688 C 172.741219 -31.810781 173.002938 -31.802969 173.163094 -31.795156 C 173.327156 -31.79125 173.584969 -31.783438 173.749031 -31.779531 C 173.909188 -31.775625 174.331063 -31.763906 174.331063 -31.763906 " transform="matrix(1,0,0,-1,68.958,101.24)"/>
</g>
<path style="fill-rule:nonzero;fill:rgb(50%,50%,50%);fill-opacity:1;stroke-width:1.59404;stroke-linecap:butt;stroke-linejoin:miter;stroke:rgb(50%,50%,50%);stroke-opacity:1;stroke-miterlimit:10;" d="M 48.764656 -59.529531 L 51.866219 -59.529531 C 52.967781 -59.529531 53.858406 -60.420156 53.858406 -61.521719 L 53.858406 -68.16625 C 53.858406 -69.267813 52.967781 -70.158438 51.866219 -70.158438 L 48.764656 -70.158438 C 47.663094 -70.158438 46.772469 -69.267813 46.772469 -68.16625 L 46.772469 -61.521719 C 46.772469 -60.420156 47.663094 -59.529531 48.764656 -59.529531 Z M 48.764656 -59.529531 " transform="matrix(1,0,0,-1,68.958,101.24)"/>
<path style="fill-rule:nonzero;fill:rgb(100%,100%,100%);fill-opacity:1;stroke-width:1.59404;stroke-linecap:butt;stroke-linejoin:miter;stroke:rgb(50%,50%,50%);stroke-opacity:1;stroke-miterlimit:10;" d="M 49.471688 -31.181875 L 51.159188 -31.181875 C 52.256844 -31.181875 53.151375 -32.0725 53.151375 -33.174063 L 53.151375 -58.951406 C 53.151375 -60.052969 52.256844 -60.9475 51.159188 -60.9475 L 49.471688 -60.9475 C 48.374031 -60.9475 47.4795 -60.052969 47.4795 -58.951406 L 47.4795 -33.174063 C 47.4795 -32.0725 48.374031 -31.181875 49.471688 -31.181875 Z M 49.471688 -31.181875 " transform="matrix(1,0,0,-1,68.958,101.24)"/>
<path style="fill-rule:nonzero;fill:rgb(100%,100%,100%);fill-opacity:1;stroke-width:1.59404;stroke-linecap:butt;stroke-linejoin:miter;stroke:rgb(50%,50%,50%);stroke-opacity:1;stroke-miterlimit:10;" d="M 48.190438 -24.095938 L 52.440438 -24.095938 L 52.440438 -31.181875 L 48.190438 -31.181875 Z M 48.190438 -24.095938 " transform="matrix(1,0,0,-1,68.958,101.24)"/>
<path style="fill-rule:nonzero;fill:rgb(100%,100%,100%);fill-opacity:1;stroke-width:1.59404;stroke-linecap:butt;stroke-linejoin:miter;stroke:rgb(50%,50%,50%);stroke-opacity:1;stroke-miterlimit:10;" d="M 48.190438 -28.345938 C 48.971688 -28.345938 49.608406 -27.713125 49.608406 -26.927969 C 49.608406 -26.146719 48.971688 -25.513906 48.190438 -25.513906 C 47.405281 -25.513906 46.772469 -26.146719 46.772469 -26.927969 C 46.772469 -27.713125 47.405281 -28.345938 48.190438 -28.345938 Z M 48.190438 -28.345938 " transform="matrix(1,0,0,-1,68.958,101.24)"/>
<path style="fill-rule:nonzero;fill:rgb(50%,50%,50%);fill-opacity:1;stroke-width:1.59404;stroke-linecap:butt;stroke-linejoin:miter;stroke:rgb(50%,50%,50%);stroke-opacity:1;stroke-miterlimit:10;" d="M 48.475594 -24.095938 L 52.155281 -24.095938 C 52.706063 -24.095938 53.151375 -23.646719 53.151375 -23.099844 L 53.151375 -19.068594 C 53.151375 -18.517813 52.842781 -18.396719 52.467781 -18.795156 L 48.163094 -23.369375 C 47.788094 -23.771719 47.928719 -24.095938 48.475594 -24.095938 Z M 48.475594 -24.095938 " transform="matrix(1,0,0,-1,68.958,101.24)"/>
<path style="fill-rule:nonzero;fill:rgb(100%,100%,100%);fill-opacity:1;stroke-width:1.59404;stroke-linecap:butt;stroke-linejoin:miter;stroke:rgb(50%,50%,50%);stroke-opacity:1;stroke-miterlimit:10;" d="M 53.151375 -19.842031 L 55.276375 -19.842031 L 55.276375 -22.677969 L 53.151375 -22.677969 Z M 53.151375 -19.842031 " transform="matrix(1,0,0,-1,68.958,101.24)"/>
<path style="fill-rule:nonzero;fill:rgb(50%,50%,50%);fill-opacity:1;stroke-width:1.59404;stroke-linecap:butt;stroke-linejoin:miter;stroke:rgb(50%,50%,50%);stroke-opacity:1;stroke-miterlimit:10;" d="M 55.772469 -19.135 L 56.194344 -19.135 C 56.471688 -19.135 56.694344 -19.357656 56.694344 -19.631094 L 56.694344 -22.888906 C 56.694344 -23.162344 56.471688 -23.385 56.194344 -23.385 L 55.772469 -23.385 C 55.499031 -23.385 55.276375 -23.162344 55.276375 -22.888906 L 55.276375 -19.631094 C 55.276375 -19.357656 55.499031 -19.135 55.772469 -19.135 Z M 55.772469 -19.135 " transform="matrix(1,0,0,-1,68.958,101.24)"/>
<path style="fill:none;stroke-width:1.59404;stroke-linecap:butt;stroke-linejoin:miter;stroke:rgb(50%,50%,50%);stroke-opacity:1;stroke-miterlimit:10;" d="M 50.315438 -72.283438 L 50.315438 -76.8225 " transform="matrix(1,0,0,-1,68.958,101.24)"/>
<path style="fill:none;stroke-width:0.9567;stroke-linecap:butt;stroke-linejoin:round;stroke:rgb(50%,50%,50%);stroke-opacity:1;stroke-miterlimit:10;" d="M 4.307193 -0.0001725 L 1.545474 1.050609 L 2.475161 -0.0001725 L 1.545474 -1.050954 Z M 4.307193 -0.0001725 " transform="matrix(0,1,1,0,119.27361,175.82562)"/>
<g style="fill:rgb(0%,0%,0%);fill-opacity:1;">
  <use xlink:href="#glyph1-1" x="114.292" y="189.841"/>
</g>
<path style="fill-rule:nonzero;fill:rgb(100%,100%,100%);fill-opacity:1;stroke-width:0.3985;stroke-linecap:butt;stroke-linejoin:round;stroke:rgb(50%,50%,50%);stroke-opacity:1;stroke-miterlimit:10;" d="M 56.694344 -21.26 L 70.01075 -16.412344 C 77.838875 -29.970938 95.178719 -34.615469 108.733406 -26.787344 C 122.292 -18.959219 126.936531 -1.623281 119.112313 11.935312 C 111.284188 25.493906 93.944344 30.138437 80.389656 22.310312 C 68.475594 15.431406 63.217781 0.99 67.924813 -11.935781 Z M 56.694344 -21.26 " transform="matrix(1,0,0,-1,68.958,101.24)"/>
<path style="fill:none;stroke-width:1.59404;stroke-linecap:butt;stroke-linejoin:miter;stroke:rgb(69.999695%,34.999084%,0%);stroke-opacity:1;stroke-miterlimit:10;" d="M 92.127938 26.220469 L 92.127938 -30.470938 " transform="matrix(1,0,0,-1,68.958,101.24)"/>
<g style="fill:rgb(0%,0%,0%);fill-opacity:1;">
  <use xlink:href="#glyph2-1" x="154.719" y="70.072"/>
  <use xlink:href="#glyph2-2" x="162.46791" y="70.072"/>
</g>
<path style="fill-rule:nonzero;fill:rgb(100%,100%,100%);fill-opacity:1;stroke-width:0.3985;stroke-linecap:butt;stroke-linejoin:round;stroke:rgb(50%,50%,50%);stroke-opacity:1;stroke-miterlimit:10;" d="M 92.127938 0.00171875 L 105.444344 -4.845938 C 105.444344 -20.502188 118.13575 -33.193594 133.792 -33.193594 C 149.44825 -33.193594 162.139656 -20.502188 162.139656 -4.845938 C 162.139656 10.806406 149.44825 23.497812 133.792 23.497812 C 120.038094 23.497812 108.264656 13.618906 105.877938 0.0759375 Z M 92.127938 0.00171875 " transform="matrix(1,0,0,-1,68.958,101.24)"/>
<g style="fill:rgb(0%,0%,0%);fill-opacity:1;">
  <use xlink:href="#glyph3-1" x="217.336" y="80.555"/>
  <use xlink:href="#glyph3-2" x="223.922491" y="80.555"/>
</g>
<path style="fill:none;stroke-width:0.3985;stroke-linecap:butt;stroke-linejoin:miter;stroke:rgb(0%,0%,0%);stroke-opacity:1;stroke-dasharray:2.98883,2.98883;stroke-miterlimit:10;" d="M 134.647469 23.384531 L 134.647469 -31.888906 " transform="matrix(1,0,0,-1,68.958,101.24)"/>
<g style="fill:rgb(0%,0%,0%);fill-opacity:1;">
  <use xlink:href="#glyph2-1" x="197.239" y="73.504"/>
  <use xlink:href="#glyph2-2" x="204.98791" y="73.504"/>
</g>
<path style="fill:none;stroke-width:1.59404;stroke-linecap:butt;stroke-linejoin:miter;stroke:rgb(69.999695%,34.999084%,0%);stroke-opacity:1;stroke-miterlimit:10;" d="M 138.897469 23.384531 L 138.897469 -31.888906 " transform="matrix(1,0,0,-1,68.958,101.24)"/>
<path style="fill-rule:nonzero;fill:rgb(50%,50%,50%);fill-opacity:1;stroke-width:1.59404;stroke-linecap:butt;stroke-linejoin:miter;stroke:rgb(50%,50%,50%);stroke-opacity:1;stroke-miterlimit:10;" d="M 64.624031 59.529062 L 61.522469 59.529062 C 60.420906 59.529062 59.526375 60.419687 59.526375 61.52125 L 59.526375 68.165781 C 59.526375 69.267344 60.420906 70.157969 61.522469 70.157969 L 64.624031 70.157969 C 65.721688 70.157969 66.616219 69.267344 66.616219 68.165781 L 66.616219 61.52125 C 66.616219 60.419687 65.721688 59.529062 64.624031 59.529062 Z M 64.624031 59.529062 " transform="matrix(1,0,0,-1,68.958,101.24)"/>
<path style="fill-rule:nonzero;fill:rgb(100%,100%,100%);fill-opacity:1;stroke-width:1.59404;stroke-linecap:butt;stroke-linejoin:miter;stroke:rgb(50%,50%,50%);stroke-opacity:1;stroke-miterlimit:10;" d="M 63.913094 31.181406 L 62.2295 31.181406 C 61.127938 31.181406 60.237313 32.072031 60.237313 33.173594 L 60.237313 58.954844 C 60.237313 60.0525 61.127938 60.947031 62.2295 60.947031 L 63.913094 60.947031 C 65.014656 60.947031 65.905281 60.0525 65.905281 58.954844 L 65.905281 33.173594 C 65.905281 32.072031 65.014656 31.181406 63.913094 31.181406 Z M 63.913094 31.181406 " transform="matrix(1,0,0,-1,68.958,101.24)"/>
<path style="fill-rule:nonzero;fill:rgb(100%,100%,100%);fill-opacity:1;stroke-width:1.59404;stroke-linecap:butt;stroke-linejoin:miter;stroke:rgb(50%,50%,50%);stroke-opacity:1;stroke-miterlimit:10;" d="M 65.19825 24.095469 L 60.944344 24.095469 L 60.944344 31.181406 L 65.19825 31.181406 Z M 65.19825 24.095469 " transform="matrix(1,0,0,-1,68.958,101.24)"/>
<path style="fill-rule:nonzero;fill:rgb(100%,100%,100%);fill-opacity:1;stroke-width:1.59404;stroke-linecap:butt;stroke-linejoin:miter;stroke:rgb(50%,50%,50%);stroke-opacity:1;stroke-miterlimit:10;" d="M 65.19825 28.345469 C 64.413094 28.345469 63.780281 27.712656 63.780281 26.931406 C 63.780281 26.14625 64.413094 25.513437 65.19825 25.513437 C 65.9795 25.513437 66.616219 26.14625 66.616219 26.931406 C 66.616219 27.712656 65.9795 28.345469 65.19825 28.345469 Z M 65.19825 28.345469 " transform="matrix(1,0,0,-1,68.958,101.24)"/>
<path style="fill-rule:nonzero;fill:rgb(50%,50%,50%);fill-opacity:1;stroke-width:1.59404;stroke-linecap:butt;stroke-linejoin:miter;stroke:rgb(50%,50%,50%);stroke-opacity:1;stroke-miterlimit:10;" d="M 64.909188 24.095469 L 61.233406 24.095469 C 60.682625 24.095469 60.237313 23.650156 60.237313 23.099375 L 60.237313 19.068125 C 60.237313 18.517344 60.542 18.39625 60.920906 18.794687 L 65.221688 23.368906 C 65.600594 23.77125 65.459969 24.095469 64.909188 24.095469 Z M 64.909188 24.095469 " transform="matrix(1,0,0,-1,68.958,101.24)"/>
<path style="fill-rule:nonzero;fill:rgb(100%,100%,100%);fill-opacity:1;stroke-width:1.59404;stroke-linecap:butt;stroke-linejoin:miter;stroke:rgb(50%,50%,50%);stroke-opacity:1;stroke-miterlimit:10;" d="M 60.237313 19.841562 L 58.112313 19.841562 L 58.112313 22.6775 L 60.237313 22.6775 Z M 60.237313 19.841562 " transform="matrix(1,0,0,-1,68.958,101.24)"/>
<path style="fill-rule:nonzero;fill:rgb(50%,50%,50%);fill-opacity:1;stroke-width:1.59404;stroke-linecap:butt;stroke-linejoin:miter;stroke:rgb(50%,50%,50%);stroke-opacity:1;stroke-miterlimit:10;" d="M 57.612313 19.134531 L 57.190438 19.134531 C 56.917 19.134531 56.694344 19.357187 56.694344 19.630625 L 56.694344 22.888437 C 56.694344 23.161875 56.917 23.384531 57.190438 23.384531 L 57.612313 23.384531 C 57.889656 23.384531 58.112313 23.161875 58.112313 22.888437 L 58.112313 19.630625 C 58.112313 19.357187 57.889656 19.134531 57.612313 19.134531 Z M 57.612313 19.134531 " transform="matrix(1,0,0,-1,68.958,101.24)"/>
<path style="fill:none;stroke-width:1.59404;stroke-linecap:butt;stroke-linejoin:miter;stroke:rgb(50%,50%,50%);stroke-opacity:1;stroke-miterlimit:10;" d="M 63.07325 72.282969 L 63.07325 76.822031 " transform="matrix(1,0,0,-1,68.958,101.24)"/>
<path style="fill:none;stroke-width:0.9567;stroke-linecap:butt;stroke-linejoin:round;stroke:rgb(50%,50%,50%);stroke-opacity:1;stroke-miterlimit:10;" d="M 4.306724 -0.00169 L 1.545005 1.052998 L 2.474692 -0.00169 L 1.545005 -1.052471 Z M 4.306724 -0.00169 " transform="matrix(0,-1,-1,0,132.02956,26.65438)"/>
<g style="fill:rgb(0%,0%,0%);fill-opacity:1;">
  <use xlink:href="#glyph1-1" x="127.047" y="16.928"/>
</g>
<path style="fill-rule:nonzero;fill:rgb(100%,100%,100%);fill-opacity:1;stroke-width:0.3985;stroke-linecap:butt;stroke-linejoin:round;stroke:rgb(50%,50%,50%);stroke-opacity:1;stroke-miterlimit:10;" d="M 56.694344 21.259531 L 43.374031 16.411875 C 46.092781 31.829844 35.799813 46.532969 20.381844 49.251719 C 4.963875 51.970469 -9.73925 41.673594 -12.458 26.255625 C -15.17675 10.837656 -4.879875 -3.861563 10.538094 -6.580313 C 24.081063 -8.970938 37.389656 -1.287344 42.096688 11.638437 Z M 56.694344 21.259531 " transform="matrix(1,0,0,-1,68.958,101.24)"/>
<path style="fill:none;stroke-width:1.59404;stroke-linecap:butt;stroke-linejoin:miter;stroke:rgb(69.999695%,34.999084%,0%);stroke-opacity:1;stroke-miterlimit:10;" d="M 14.174813 49.607187 L 14.174813 -7.088125 " transform="matrix(1,0,0,-1,68.958,101.24)"/>
<g style="fill:rgb(0%,0%,0%);fill-opacity:1;">
  <use xlink:href="#glyph2-1" x="76.766" y="46.686"/>
  <use xlink:href="#glyph2-2" x="84.51491" y="46.686"/>
</g>
<path style="fill-rule:nonzero;fill:rgb(100%,100%,100%);fill-opacity:1;stroke-width:0.3985;stroke-linecap:butt;stroke-linejoin:round;stroke:rgb(50%,50%,50%);stroke-opacity:1;stroke-miterlimit:10;" d="M 14.174813 21.259531 L -0.00096875 21.259531 C -0.00096875 36.915781 -12.692375 49.607187 -28.348625 49.607187 C -44.000969 49.607187 -56.692375 36.915781 -56.692375 21.259531 C -56.692375 5.603281 -44.000969 -7.088125 -28.348625 -7.088125 C -14.590812 -7.088125 -2.817375 2.790781 -0.430656 16.337656 Z M 14.174813 21.259531 " transform="matrix(1,0,0,-1,68.958,101.24)"/>
<g style="fill:rgb(0%,0%,0%);fill-opacity:1;">
  <use xlink:href="#glyph3-1" x="8.99" y="55.044"/>
  <use xlink:href="#glyph3-2" x="15.576491" y="55.044"/>
</g>
<path style="fill:none;stroke-width:0.3985;stroke-linecap:butt;stroke-linejoin:miter;stroke:rgb(0%,0%,0%);stroke-opacity:1;stroke-dasharray:2.98883,2.98883;stroke-miterlimit:10;" d="M -28.348625 49.607187 L -28.348625 -7.088125 " transform="matrix(1,0,0,-1,68.958,101.24)"/>
<g style="fill:rgb(0%,0%,0%);fill-opacity:1;">
  <use xlink:href="#glyph2-1" x="34.247" y="47.284"/>
  <use xlink:href="#glyph2-2" x="41.99591" y="47.284"/>
</g>
<path style="fill:none;stroke-width:1.59404;stroke-linecap:butt;stroke-linejoin:miter;stroke:rgb(69.999695%,34.999084%,0%);stroke-opacity:1;stroke-miterlimit:10;" d="M -32.598625 49.607187 L -32.598625 -7.088125 " transform="matrix(1,0,0,-1,68.958,101.24)"/>
</g>
</svg>
